<?xml version="1.0" encoding="UTF-8" standalone="no"?>
<svg
   width="16"
   height="16"
   fill="currentColor"
   class="bi bi-collection-play"
   viewBox="0 0 16 16"
   version="1.1"
   id="svg6"
   xmlns="http://www.w3.org/2000/svg"
   xmlns:svg="http://www.w3.org/2000/svg">
  <defs
     id="defs10" />
  <g
     id="g849"
     transform="translate(-0.42710005,0.0358707)">
    <path
       d="M 3.4616839,8.1439645 C 3.0738789,7.9015857 2.5708447,8.1803911 2.5708456,8.6377102 v 5.8224718 c -9e-7,0.457319 0.5030333,0.736125 0.8908383,0.493746 l 4.6579777,-2.911236 c 0.3648782,-0.228047 0.3648782,-0.759444 0,-0.987492 z"
       id="path2"
       style="stroke-width:1.16449" />
    <path
       d="M 9.0492221,4.585293 C 8.7441386,4.5828942 8.4624253,4.8245509 8.4624262,5.1675402 v 5.8224728 c -10e-7,0.457318 0.5014865,0.735924 0.8892919,0.493545 L 14.009696,8.5723218 c 0.364878,-0.2280464 0.364878,-0.7590433 0,-0.9870909 L 9.3517181,4.6739948 C 9.2547667,4.6134001 9.1509167,4.586094 9.0492221,4.585293 Z"
       id="path1105"
       style="stroke-width:1.16449" />
    <path
       d="M 3.5378085,0.97433059 C 3.1500033,0.73195179 2.6469692,1.0107571 2.6469701,1.4680762 V 7.290548 c -9e-7,0.4573191 0.5030332,0.7361247 0.8908384,0.4937456 l 4.6579779,-2.911236 c 0.364878,-0.2280464 0.364878,-0.7594436 0,-0.9874912 z"
       id="path1107"
       style="stroke-width:1.16449" />
  </g>
</svg>
