<?xml version="1.0" encoding="UTF-8" standalone="no"?>
<svg
   viewBox="0 0 16 16"
   version="1.1"
   id="svg4"
   width="16"
   height="16"
   xmlns="http://www.w3.org/2000/svg"
   xmlns:svg="http://www.w3.org/2000/svg">
  <defs
     id="defs8" />
  <!--! Font Awesome Pro 6.0.0 by @fontawesome - https://fontawesome.com License - https://fontawesome.com/license (Commercial License) Copyright 2022 Fonticons, Inc. -->
  <path
     d="M 0,0 V 16 H 16 V 0 Z M 12.8,6.4 H 9.6 V 9.6 H 6.4 v 3.2 H 3.2 V 3.2 h 9.6 z"
     id="path2"
     style="stroke-width:0.0357142" />
</svg>
