<?xml version="1.0" encoding="UTF-8" standalone="no"?>
<svg
   width="16"
   height="16"
   viewBox="0 0 16 16"
   fill="none"
   version="1.1"
   id="svg6"
   xmlns="http://www.w3.org/2000/svg"
   xmlns:svg="http://www.w3.org/2000/svg">
  <defs
     id="defs10" />
  <path
     id="circle2"
     style="fill:#000000;stroke-width:0.5"
     d="M 8,0 A 8,8 0 0 0 0,8 8,8 0 0 0 8,16 8,8 0 0 0 16,8 8,8 0 0 0 8,0 Z M 7.9951,3.413086 c 2.9867,0 3.997019,2.016986 4.042969,3.163086 H 9.878889 C 9.832939,5.934372 9.280775,4.9716797 7.948225,4.9716797 c -1.42445,0 -2.342773,1.2381268 -2.342773,2.7509763 0,1.5128505 0.918323,2.75 2.342773,2.75 1.2866,0 1.8386095,-1.0080015 2.06836,-2.0166015 h -2.06836 v -0.825195 h 4.338868 v 4.2177735 h -1.903321 v -2.65918 c -0.13785,0.9627 -0.734675,2.842774 -3.078125,2.842774 -2.3434199,0 -3.7226562,-1.879724 -3.7226562,-4.217774 0,-2.4297 1.5173092,-4.401367 4.4121092,-4.401367 z" />
</svg>
