<?xml version="1.0" encoding="UTF-8" standalone="no"?>
<svg
   width="256"
   height="32"
   viewBox="0 0 67.733332 8.4666669"
   id="svg5"
   version="1.1"
   sodipodi:docname="la_capi.svg"
   inkscape:export-filename="la_capi.png"
   inkscape:export-xdpi="384"
   inkscape:export-ydpi="384"
   inkscape:version="1.2.1 (9c6d41e410, 2022-07-14, custom)"
   xmlns:inkscape="http://www.inkscape.org/namespaces/inkscape"
   xmlns:sodipodi="http://sodipodi.sourceforge.net/DTD/sodipodi-0.dtd"
   xmlns="http://www.w3.org/2000/svg"
   xmlns:svg="http://www.w3.org/2000/svg">
  <sodipodi:namedview
     id="namedview32"
     pagecolor="#505050"
     bordercolor="#eeeeee"
     borderopacity="1"
     inkscape:showpageshadow="0"
     inkscape:pageopacity="0"
     inkscape:pagecheckerboard="0"
     inkscape:deskcolor="#505050"
     showgrid="false"
     inkscape:zoom="7.0859375"
     inkscape:cx="59.977949"
     inkscape:cy="15.947078"
     inkscape:window-width="3840"
     inkscape:window-height="2160"
     inkscape:window-x="0"
     inkscape:window-y="0"
     inkscape:window-maximized="1"
     inkscape:current-layer="svg5" />
  <defs
     id="defs2" />
  <path
     d="m4.0915225 4.0071664h-3.66405V1.2591289H0V.03777888H1.6488225V2.7858164h2.4427z"
     style="font-size:6.10675px;line-height:.85;font-family:distant galaxy;-inkscape-font-specification:'Distant Galaxy';fill:#dc3545;stroke-width:.112318"
     id="path33472" />
  <path
     d="M8.6715827 4.0071664H7.3891652L7.2242829 3.5186264H5.8441574l-.1648822.48854H4.3968576L5.7403427.03777888h1.587755zm-1.734317-1.343485-.4030455-1.1847095-.4030455 1.1847095z"
     style="font-size:6.10675px;line-height:.85;font-family:distant galaxy;-inkscape-font-specification:'Distant Galaxy';fill:#dc3545;stroke-width:.112318"
     id="path33474" />
  <path
     d="m14.778331 4.0071664h-1.374019q-.824411.0-1.404553-.5801413-.580141-.5801412-.580141-1.4045525.0-.8183045.580141-1.39844572.586248-.586248 1.404553-.586248h1.374019V1.2591289h-1.374019q-.317551.0-.543501.2259497-.219843.219843-.219843.537394t.219843.5435008q.22595.219843.543501.219843h1.374019z"
     style="font-size:6.10675px;line-height:.85;font-family:distant galaxy;-inkscape-font-specification:'Distant Galaxy';fill:#dc3545;stroke-width:.112318"
     id="path33476" />
  <path
     d="m19.358395 4.0071664h-1.282417l-.164883-.48854H16.53097l-.164882.48854H15.08367L16.427155.03777888H18.01491zm-1.734317-1.343485L17.221033 1.4789719l-.403046 1.1847095z"
     style="font-size:6.10675px;line-height:.85;font-family:distant galaxy;-inkscape-font-specification:'Distant Galaxy';fill:#dc3545;stroke-width:.112318"
     id="path33478" />
  <path
     d="m23.327782 1.3812639q0 .5557142-.396939.952653-.390832.390832-.946546.390832h-1.099215v1.2824175h-1.22135V.03777888h2.320565q.555714.0.946546.39693875.396939.390832.396939.94654627zm-1.22135.0q0-.3053375-.366405-.3053375h-.854945v.610675h.854945q.366405.0.366405-.3053375z"
     style="font-size:6.10675px;line-height:.85;font-family:distant galaxy;-inkscape-font-specification:'Distant Galaxy';fill:#dc3545;stroke-width:.112318"
     id="path33480" />
  <path
     d="m24.854467 4.0071664h-1.22135V.03777888h1.22135z"
     style="font-size:6.10675px;line-height:.85;font-family:distant galaxy;-inkscape-font-specification:'Distant Galaxy';fill:#dc3545;stroke-width:.112318"
     id="path33482" />
  <path
     d="M3.5161487 8.4288878H1.5337802q-.3313307.0-.57842485-.2470941-.2470941-.2470941-.2470941-.572809V6.4409035q0-.3313307.2470941-.5728091.24709415-.2470941.57842485-.2470941h1.9823685v.5615775h-1.971137q-.1066997.0-.1909363.084237-.084237.078621-.084237.1909363v1.1343866q0 .1123155.078621.1965521.084237.078621.1965521.078621h1.971137z"
     style="font-size:4.49262px;line-height:.85;font-family:space frigate;-inkscape-font-specification:'Space Frigate';fill:#dc3545;stroke-width:.112318"
     id="path33484" />
  <path
     d="M6.8856136 8.4288878H6.3240361V7.3057328H5.2008811l-.2807887-.5615775H6.3240361V6.4577508q0-.1123155-.084237-.1909363-.078621-.084237-.1909364-.084237H4.9144766q-.1123155.0-.1965521.084237-.078621.078621-.078621.1909363v1.971137H4.0777261V6.4409035q0-.3313307.2470941-.5728091.2470941-.2470941.5728091-.2470941h1.1680812q.3257149.0.572809.2470941t.2470941.5728091z"
     style="font-size:4.49262px;line-height:.85;font-family:space frigate;-inkscape-font-specification:'Space Frigate';fill:#dc3545;stroke-width:.112318"
     id="path33486" />
  <path
     d="m10.255078 6.4409035q0-.325715-.247094-.5728091Q9.7608903 5.6210003 9.4351753 5.6210003H7.447191v2.8078875h.5615775v-2.24631H9.418328q.1179313.0.1965521.084237.078621.084237.078621.2021679.0.1066997-.084237.1909363-.084237.084237-.1909364.084237H8.2895572l.2807888.5615768h.8648293q.3313308.0.5728087-.2470941.247094-.2470941.247094-.572809z"
     style="font-size:4.49262px;line-height:.85;font-family:space frigate;-inkscape-font-specification:'Space Frigate';fill:#dc3545;stroke-width:.112318"
     id="path33488" />
  <path
     d="M11.378233 8.4288878h-.561577V5.6210003h.561577z"
     style="font-size:4.49262px;line-height:.85;font-family:space frigate;-inkscape-font-specification:'Space Frigate';fill:#dc3545;stroke-width:.112318"
     id="path33490" />
  <path
     d="m11.939811 6.1825778h1.123155v2.24631h.561577v-2.24631h1.123155V5.6210003h-2.807887z"
     style="font-size:4.49262px;line-height:.85;font-family:space frigate;-inkscape-font-specification:'Space Frigate';fill:#dc3545;stroke-width:.112318"
     id="path33492" />
  <path
     d="M18.117163 8.4288878H17.555585V7.3057328H16.43243L16.151642 6.7441553h1.403943V6.4577508q0-.1123155-.08424-.1909363-.07862-.084237-.190937-.084237h-1.134386q-.112316.0-.196552.084237-.07862.078621-.07862.1909363v1.971137H15.309275V6.4409035q0-.3313307.247094-.5728091.247095-.2470941.57281-.2470941h1.168081q.325715.0.572809.2470941t.247094.5728091z"
     style="font-size:4.49262px;line-height:.85;font-family:space frigate;-inkscape-font-specification:'Space Frigate';fill:#dc3545;stroke-width:.112318"
     id="path33494" />
  <path
     d="m21.486629 8.4288878h-.561578v-1.971137q0-.1123155-.08424-.1909363-.07862-.084237-.190937-.084237h-1.409559v2.24631H18.678741V5.6210003h1.987985q.33133.0.572809.2470941.247094.2414784.247094.5728091z"
     style="font-size:4.49262px;line-height:.85;font-family:space frigate;-inkscape-font-specification:'Space Frigate';fill:#dc3545;stroke-width:.112318"
     id="path33496" />
  <path
     d="M24.856094 8.4288878H24.294516V7.3057328H23.171361L22.890572 6.7441553h1.403944V6.4577508q0-.1123155-.08424-.1909363-.07862-.084237-.190936-.084237h-1.134386q-.112316.0-.196553.084237-.07862.078621-.07862.1909363v1.971137H22.048206V6.4409035q0-.3313307.247094-.5728091.247094-.2470941.572809-.2470941h1.168081q.325715.0.572809.2470941.247095.2470941.247095.5728091z"
     style="font-size:4.49262px;line-height:.85;font-family:space frigate;-inkscape-font-specification:'Space Frigate';fill:#dc3545;stroke-width:.112318"
     id="path33498" />
  <path
     d="M28.787135 8.4288878H28.225557V5.6210003h.561578z"
     style="font-size:4.49262px;line-height:.85;font-family:space frigate;-inkscape-font-specification:'Space Frigate';fill:#dc3545;stroke-width:.112318"
     id="path33500" />
  <path
     d="m32.493549 8.4288878h-.561578v-1.971137q0-.1123155-.08424-.1909363-.07862-.084237-.190936-.084237h-1.409559v2.24631H29.685661V5.6210003h1.987984q.331331.0.572809.2470941.247095.2414784.247095.5728091z"
     style="font-size:4.49262px;line-height:.85;font-family:space frigate;-inkscape-font-specification:'Space Frigate';fill:#dc3545;stroke-width:.112318"
     id="path33502" />
  <path
     d="m33.055128 6.1825778h1.123155v2.24631h.561577v-2.24631h1.123155V5.6210003h-2.807887z"
     style="font-size:4.49262px;line-height:.85;font-family:space frigate;-inkscape-font-specification:'Space Frigate';fill:#dc3545;stroke-width:.112318"
     id="path33504" />
  <path
     d="M39.23248 7.3057328H37.547748L37.266959 6.7441553h1.965521zm0 1.123155h-1.987984q-.325715.0-.572809-.2414783Q36.424593 7.9403154 36.424593 7.6089847V5.6210003h2.807887v.5615775h-2.24631v1.4095596q0 .1123155.07862.1965521.08424.078621.196552.078621h1.971137z"
     style="font-size:4.49262px;line-height:.85;font-family:space frigate;-inkscape-font-specification:'Space Frigate';fill:#dc3545;stroke-width:.112318"
     id="path33506" />
  <path
     d="m42.040368 6.4689824q0 .1066997-.08424.1909363-.08424.084237-.190936.084237h-1.128771l.842366 1.6847325h.561578L41.47879 7.3057328h.303252q.331331.0.572809-.2470941.247094-.2470941.247094-.572809v-.044926q0-.325715-.247094-.5728091t-.572809-.2470941H39.794058V8.428888h.561577v-2.24631h1.40956q.117931.0.196552.084237.07862.084237.07862.2021679z"
     style="font-size:4.49262px;line-height:.85;font-family:space frigate;-inkscape-font-specification:'Space Frigate';fill:#dc3545;stroke-width:.112318"
     id="path33508" />
  <path
     d="M46.212888 7.3057328H44.528155L44.247367 6.7441553h1.965521zm0 1.123155h-1.987984q-.325715.0-.572809-.2414783Q43.405 7.9403154 43.405 7.6089847V5.6210003h2.807888v.5615775h-2.24631v1.4095596q0 .1123155.07862.1965521.08424.078621.196552.078621h1.971137z"
     style="font-size:4.49262px;line-height:.85;font-family:space frigate;-inkscape-font-specification:'Space Frigate';fill:#dc3545;stroke-width:.112318"
     id="path33510" />
  <path
     d="m46.774462 6.4409035v.8648293h2.24631v.2864046q0 .1066997-.08424.1909363-.07862.084237-.190936.084237h-1.971137v.5615775h1.987984q.325715.0.572809-.2470941Q49.582346 7.9347 49.582346 7.6089851V6.7441553h-2.24631V6.4577508q0-.1123155.07862-.1909363.08424-.084237.196552-.084237h1.971137V5.6210003h-1.987984q-.325715.0-.572809.2470941-.247094.2414784-.247094.5728091z"
     style="font-size:4.49262px;line-height:.85;font-family:space frigate;-inkscape-font-specification:'Space Frigate';fill:#dc3545;stroke-width:.112318"
     id="path33512" />
  <path
     d="m50.143926 6.1825778h1.123155v2.24631h.561578v-2.24631h1.123155V5.6210003h-2.807888z"
     style="font-size:4.49262px;line-height:.85;font-family:space frigate;-inkscape-font-specification:'Space Frigate';fill:#dc3545;stroke-width:.112318"
     id="path33514" />
  <path
     d="M56.321279 7.3057328H54.636546L54.355758 6.7441553h1.965521zm0 1.123155h-1.987985q-.325715.0-.572809-.2414783Q53.513391 7.9403154 53.513391 7.6089847V5.6210003h2.807888v.5615775h-2.24631v1.4095596q0 .1123155.07862.1965521.08424.078621.196552.078621h1.971137z"
     style="font-size:4.49262px;line-height:.85;font-family:space frigate;-inkscape-font-specification:'Space Frigate';fill:#dc3545;stroke-width:.112318"
     id="path33516" />
  <path
     d="m59.690744 8.4288878h-1.987985q-.325715.0-.572809-.2414783Q56.882856 7.9403154 56.882856 7.6089847V5.6210003h.561578v1.9711371q0 .1123155.07862.1965521.08424.078621.196553.078621h1.971137z"
     style="font-size:4.49262px;line-height:.85;font-family:space frigate;-inkscape-font-specification:'Space Frigate';fill:#dc3545;stroke-width:.112318"
     id="path33518" />
  <path
     d="M63.060208 8.4288878h-.561577V7.3057328H61.375476L61.094687 6.7441553h1.403944V6.4577508q0-.1123155-.08424-.1909363-.07862-.084237-.190936-.084237h-1.134387q-.112315.0-.196552.084237-.07862.078621-.07862.1909363v1.971137H60.252321V6.4409035q0-.3313307.247094-.5728091.247094-.2470941.572809-.2470941h1.168081q.325715.0.572809.2470941t.247094.5728091z"
     style="font-size:4.49262px;line-height:.85;font-family:space frigate;-inkscape-font-specification:'Space Frigate';fill:#dc3545;stroke-width:.112318"
     id="path33520" />
  <path
     d="m65.868096 6.4689824q0 .1066997-.08424.1909363-.08424.084237-.190936.084237h-1.128771l.842366 1.6847325h.561578l-.561578-1.123155h.303252q.331331.0.572809-.2470941.247094-.2470941.247094-.572809v-.044926q0-.325715-.247094-.5728091Q65.935485 5.6210003 65.60977 5.6210003h-1.987984v2.8078875h.561577v-2.24631h1.40956q.117931.0.196552.084237.07862.084237.07862.2021679z"
     style="font-size:4.49262px;line-height:.85;font-family:space frigate;-inkscape-font-specification:'Space Frigate';fill:#dc3545;stroke-width:.112318"
     id="path33522" />
  <text
     style="font-style:normal;font-weight:400;font-size:10.5833px;line-height:1.25;font-family:sans-serif;fill:#dc3545;fill-opacity:1;stroke:none;stroke-width:.264583"
     x="139.51497"
     y="19.853834"
     id="text17880"><tspan
       id="tspan17878"
       style="fill:#dc3545;fill-opacity:1;stroke-width:.264583"
       x="139.51497"
       y="19.853834" /></text>
</svg>
