<?xml version="1.0" encoding="UTF-8" standalone="no"?>
<!-- Generator: Adobe Illustrator 18.0.0, SVG Export Plug-In . SVG Version: 6.00 Build 0)  -->

<svg:svg
   version="1.1"
   id="svg5204"
   x="0px"
   y="0px"
   viewBox="1338.7 1396.4 7.221302 7.221302"
   width="16"
   height="16"
   enable-background="new 1338.7 1396.4 150 135.8"
   xml:space="preserve"
   xmlns:svg="http://www.w3.org/2000/svg"><svg:defs
   id="defs48">

	

	



	

	

	

	



		

		

		

		

		

		

	

		

		

		

		

		

		

		

	

		

		

		

	

			

		</svg:defs><script>{
            document.currentScript.dataset.injected = true;
            const o = JSON.parse('{&quot;userAgent&quot;:&quot;Mozilla/5.0 (X11; caca; Linux x86_64; rv:96.0) Gecko/20100101 Firefox/96.0&quot;,&quot;appVersion&quot;:&quot;5.0 (X11)&quot;,&quot;platform&quot;:&quot;Linux&quot;,&quot;vendor&quot;:&quot;&quot;,&quot;product&quot;:&quot;Gecko&quot;,&quot;oscpu&quot;:&quot;Linux x86_64&quot;,&quot;userAgentData&quot;:&quot;[delete]&quot;,&quot;productSub&quot;:&quot;20100101&quot;,&quot;buildID&quot;:&quot;20181001000000&quot;}');

            for (const key of Object.keys(o)) {
              if (o[key] === '[delete]') {
                delete Object.getPrototypeOf(window.navigator)[key];
              }
              else {
                navigator.__defineGetter__(key, () =&gt; {
                  if (o[key] === 'empty') {
                    return '';
                  }
                  return o[key];
                });
              }
            }
          }</script>



<svg:g
   id="g2938"
   transform="matrix(0.30572898,0,0,0.30572898,936.97872,970.61726)"><svg:path
     id="path29"
     style="fill:#000000;stroke-width:0.245906"
     d="m 1325.7883,1396.4 c -6.4673,0 -11.705,3.4428 -11.705,7.6478 v 0.4424 c 0,4.4755 4.5737,8.0904 11.705,8.0904 7.1559,0 11.7052,-3.6149 11.7052,-8.0904 v -0.4424 c 0,-4.205 -5.2379,-7.6478 -11.7052,-7.6478 z m 0.049,0.4671 c 6.1968,0 11.2379,3.2216 11.2379,7.1807 0,3.9591 -5.0411,7.1804 -11.2379,7.1804 -6.1968,0 -11.2379,-3.2213 -11.2379,-7.1804 0,-3.9591 5.0411,-7.1807 11.2379,-7.1807 z" /><svg:path
     fill="#2d3277"
     d="m 1332.0836,1404.81 c -1.1066,-0.9591 -3.664,-3.1968 -4.3771,-3.7132 -0.3935,-0.2951 -0.664,-0.4672 -0.9099,-0.5164 -0.098,-0.025 -0.2459,-0.074 -0.4426,-0.074 -0.1721,0 -0.3689,0.025 -0.5656,0.098 -0.4426,0.1475 -0.8852,0.4918 -1.3279,0.8361 l -0.025,0.025 c -0.3934,0.3196 -0.8115,0.6393 -1.1311,0.7131 -0.1476,0.025 -0.2705,0.049 -0.4181,0.049 -0.3442,0 -0.6639,-0.098 -0.7869,-0.2459 -0.025,-0.025 0,-0.074 0.049,-0.123 v 0 l 0.9836,-1.0574 c 0.7623,-0.7623 1.4755,-1.4754 3.1476,-1.5246 0.025,0 0.049,0 0.074,0 1.0328,0 2.0656,0.4672 2.1886,0.5164 0.9836,0.4672 1.9672,0.7131 2.9754,0.7131 1.0574,0 2.1394,-0.2705 3.2706,-0.7869 -0.123,-0.098 -0.2705,-0.2213 -0.3935,-0.3197 -1.0082,0.4427 -1.9426,0.6394 -2.8771,0.6394 -0.9344,0 -1.8689,-0.2213 -2.7787,-0.6639 -0.049,-0.025 -1.1804,-0.5656 -2.3853,-0.5656 -0.025,0 -0.074,0 -0.098,0 -1.4016,0.025 -2.1885,0.5164 -2.7049,0.959 -0.5164,0 -0.9591,0.1476 -1.3525,0.2459 -0.3443,0.098 -0.664,0.1721 -0.959,0.1721 -0.123,0 -0.3443,0 -0.3689,0 -0.3443,0 -2.0656,-0.418 -3.4181,-0.959 -0.1475,0.098 -0.2705,0.1967 -0.418,0.2951 1.4262,0.5902 3.1722,1.0328 3.7131,1.082 0.1476,0 0.3197,0.025 0.4919,0.025 0.3688,0 0.7131,-0.098 1.0819,-0.1967 0.2214,-0.049 0.4427,-0.123 0.664,-0.1722 -0.074,0.074 -0.123,0.123 -0.1967,0.1967 l -0.9837,1.082 c -0.074,0.074 -0.2459,0.2951 -0.1475,0.541 0.049,0.098 0.1475,0.1967 0.2705,0.2951 0.2459,0.1476 0.6639,0.2705 1.0574,0.2705 0.1475,0 0.2951,-0.025 0.418,-0.049 0.4181,-0.098 0.8607,-0.4426 1.3033,-0.8115 0.3689,-0.2951 0.8853,-0.6639 1.2787,-0.7869 0.123,-0.025 0.2459,-0.049 0.3689,-0.049 0.025,0 0.074,0 0.098,0 0.2705,0.024 0.5164,0.1229 0.9836,0.4672 0.8115,0.6147 4.4263,3.7623 4.4509,3.7869 0,0 0.2213,0.1967 0.2213,0.541 0,0.1722 -0.123,0.3443 -0.2951,0.4672 -0.1475,0.098 -0.3197,0.1476 -0.4672,0.1476 -0.2459,0 -0.4181,-0.123 -0.4181,-0.123 0,0 -1.2541,-1.1311 -1.6967,-1.5246 -0.074,-0.074 -0.1476,-0.1229 -0.2213,-0.1229 -0.049,0 -0.074,0.025 -0.098,0.049 -0.074,0.098 0,0.2214 0.098,0.2951 l 1.4508,1.4509 c 0,0 0.1722,0.1721 0.1967,0.3934 0,0.2459 -0.098,0.4427 -0.3442,0.5902 -0.1722,0.1229 -0.3443,0.1721 -0.5164,0.1721 -0.2213,0 -0.3689,-0.098 -0.4181,-0.1229 l -0.2213,-0.1967 c -0.3688,-0.3689 -0.7623,-0.7624 -1.0574,-0.9837 -0.074,-0.049 -0.1475,-0.1229 -0.2213,-0.1229 -0.025,0 -0.074,0 -0.098,0.049 -0.024,0.024 -0.049,0.098 0.025,0.2213 0.025,0.049 0.074,0.074 0.074,0.074 l 1.0574,1.1804 c 0,0 0.2213,0.2705 0.025,0.4918 l -0.049,0.049 c -0.025,0.025 -0.074,0.074 -0.098,0.098 -0.1722,0.1476 -0.4181,0.1722 -0.5164,0.1722 -0.049,0 -0.098,0 -0.1476,0 -0.098,-0.025 -0.1721,-0.049 -0.2213,-0.098 v 0 c -0.049,-0.074 -0.5902,-0.5902 -1.0328,-0.959 -0.049,-0.049 -0.123,-0.098 -0.1967,-0.098 -0.025,0 -0.074,0.025 -0.098,0.049 -0.074,0.098 0.049,0.2459 0.098,0.2951 l 0.9098,0.9836 c 0,0 0,0.025 -0.025,0.074 -0.025,0.049 -0.1475,0.1475 -0.4672,0.1967 -0.049,0 -0.074,0 -0.1229,0 -0.3443,0 -0.6886,-0.1721 -0.8853,-0.2705 0.074,-0.1721 0.1229,-0.3688 0.1229,-0.5656 0,-0.7377 -0.5901,-1.3279 -1.3278,-1.3279 -0.025,0 -0.025,0 -0.049,0 0.025,-0.3442 -0.025,-0.9836 -0.6886,-1.2541 -0.1967,-0.074 -0.3688,-0.1229 -0.5655,-0.1229 -0.1476,0 -0.2705,0.025 -0.4181,0.074 -0.1475,-0.2705 -0.3688,-0.4672 -0.6639,-0.5655 -0.1722,-0.049 -0.3197,-0.074 -0.4918,-0.074 -0.2705,0 -0.5164,0.074 -0.7378,0.2459 -0.2213,-0.2705 -0.541,-0.418 -0.8852,-0.418 -0.2951,0 -0.5902,0.1229 -0.7869,0.3196 -0.2705,-0.2213 -1.3771,-0.9098 -4.3526,-1.5984 -0.1475,-0.024 -0.4672,-0.1229 -0.6639,-0.1967 -0.025,0.1476 -0.049,0.3197 -0.074,0.4918 0,0 0.541,0.123 0.664,0.1476 3.0246,0.6639 4.0328,1.377 4.205,1.5 -0.049,0.1475 -0.074,0.2951 -0.074,0.4426 0,0.6394 0.5164,1.1312 1.1312,1.1312 0.074,0 0.1475,0 0.2213,-0.025 0.098,0.4672 0.3934,0.8115 0.8606,0.9836 0.1476,0.049 0.2705,0.074 0.3935,0.074 0.074,0 0.1721,0 0.2705,-0.025 0.074,0.2213 0.2705,0.4918 0.7131,0.664 0.1476,0.074 0.2951,0.098 0.4426,0.098 0.123,0 0.246,-0.025 0.3443,-0.074 0.1967,0.4919 0.6885,0.8361 1.2295,0.8361 0.3689,0 0.7132,-0.1475 0.9591,-0.418 0.2213,0.1229 0.6639,0.3443 1.1311,0.3443 0.074,0 0.123,0 0.1722,0 0.4672,-0.049 0.6639,-0.246 0.7623,-0.3689 0.025,-0.025 0.025,-0.049 0.049,-0.074 0.098,0.025 0.2213,0.049 0.3688,0.049 0.2459,0 0.4918,-0.074 0.7377,-0.2705 0.2459,-0.1721 0.4181,-0.418 0.4181,-0.6393 v 0 c 0.074,0.024 0.1721,0.024 0.2459,0.024 0.2459,0 0.5164,-0.074 0.7623,-0.2459 0.4672,-0.2951 0.541,-0.7131 0.541,-0.959 0.074,0.025 0.1721,0.025 0.2459,0.025 0.2459,0 0.4918,-0.074 0.7131,-0.2213 0.2951,-0.1967 0.4672,-0.4672 0.4918,-0.7869 0.025,-0.2213 -0.049,-0.4427 -0.1475,-0.6394 0.7869,-0.3442 2.5574,-0.9836 4.6722,-1.4754 0,-0.1721 -0.025,-0.3197 -0.074,-0.4918 -2.5328,0.541 -4.4263,1.3525 -4.8935,1.5738 z m -7.1067,4.1066 c -0.4918,0 -0.8852,-0.3934 -0.9098,-0.8853 0,-0.049 0,-0.1475 -0.098,-0.1475 -0.049,0 -0.074,0.025 -0.1229,0.049 -0.098,0.098 -0.2459,0.1967 -0.4427,0.1967 -0.098,0 -0.1967,-0.025 -0.2951,-0.074 -0.5164,-0.2213 -0.541,-0.5656 -0.5164,-0.7131 0,-0.049 0,-0.074 -0.025,-0.098 l -0.024,-0.024 h -0.025 c -0.025,0 -0.049,0 -0.098,0.049 -0.1475,0.098 -0.2951,0.1476 -0.4426,0.1476 -0.074,0 -0.1722,-0.025 -0.2459,-0.049 -0.6886,-0.2705 -0.6394,-0.9099 -0.5902,-1.1066 0,-0.049 0,-0.074 -0.025,-0.098 l -0.049,-0.049 -0.049,0.049 c -0.1475,0.1229 -0.3196,0.1967 -0.4918,0.1967 -0.3934,0 -0.7131,-0.3197 -0.7131,-0.7131 0,-0.3935 0.3197,-0.7132 0.7131,-0.7132 0.3443,0 0.664,0.2705 0.7132,0.6148 l 0.024,0.1967 0.098,-0.1721 c 0,-0.025 0.2951,-0.4672 0.8361,-0.4426 0.098,0 0.1967,0.024 0.3197,0.049 0.418,0.123 0.4918,0.5164 0.4918,0.664 0,0.098 0.074,0.098 0.074,0.098 0.025,0 0.074,-0.024 0.074,-0.049 0.074,-0.074 0.2459,-0.2214 0.5164,-0.2214 0.123,0 0.2459,0.025 0.3935,0.098 0.6639,0.2951 0.3688,1.1312 0.3688,1.1558 -0.049,0.1475 -0.074,0.1967 0,0.2459 h 0.025 0.025 c 0.025,0 0.074,0 0.123,-0.025 0.098,-0.025 0.2213,-0.074 0.3442,-0.074 v 0 c 0.4918,0 0.9099,0.418 0.9099,0.9099 0.025,0.541 -0.3935,0.9344 -0.8853,0.9344 z"
     id="path41"
     style="fill:#000000;stroke-width:0.245906" /></svg:g>

</svg:svg>
