<?xml version="1.0" encoding="UTF-8" standalone="no"?>
<svg
   viewBox="0 0 16 16"
   version="1.1"
   id="svg4"
   sodipodi:docname="monero-brands.svg"
   width="16"
   height="16"
   inkscape:version="1.1.2 (0a00cf5339, 2022-02-04)"
   xmlns:inkscape="http://www.inkscape.org/namespaces/inkscape"
   xmlns:sodipodi="http://sodipodi.sourceforge.net/DTD/sodipodi-0.dtd"
   xmlns="http://www.w3.org/2000/svg"
   xmlns:svg="http://www.w3.org/2000/svg">
  <defs
     id="defs8" />
  <sodipodi:namedview
     id="namedview6"
     pagecolor="#505050"
     bordercolor="#eeeeee"
     borderopacity="1"
     inkscape:pageshadow="0"
     inkscape:pageopacity="0"
     inkscape:pagecheckerboard="0"
     showgrid="false"
     width="16px"
     inkscape:zoom="10.527594"
     inkscape:cx="68.486686"
     inkscape:cy="74.185994"
     inkscape:window-width="3840"
     inkscape:window-height="2160"
     inkscape:window-x="0"
     inkscape:window-y="0"
     inkscape:window-maximized="1"
     inkscape:current-layer="svg4" />
  <!--! Font Awesome Pro 6.0.0 by @fontawesome - https://fontawesome.com License - https://fontawesome.com/license (Commercial License) Copyright 2022 Fonticons, Inc. -->
  <path
     d="m 11.354839,12.129032 h 3.496774 C 13.451613,14.448387 10.906452,16 8,16 5.0935484,16 2.5483871,14.448387 1.1483871,12.129032 H 4.6451613 V 8.006452 L 8,11.387097 11.354839,8 Z M 2.8387097,10.580645 V 3.870968 L 7.9806452,9.012903 13.16129,3.870968 v 6.709677 h 2.412904 C 15.848387,9.770968 16,8.903226 16,8 16,3.580645 12.419355,0 8,0 3.5806452,0 0,3.580645 0,8 0,8.903226 0.1483871,9.770968 0.42580645,10.580645 Z"
     id="path2"
     style="stroke-width:0.032258" />
</svg>
