<?xml version="1.0" encoding="UTF-8" standalone="no"?>
<svg
   viewBox="0 0 16 16"
   version="1.1"
   id="svg827"
   width="16"
   height="16"
   xmlns="http://www.w3.org/2000/svg"
   xmlns:svg="http://www.w3.org/2000/svg">
  <defs
     id="defs831" />
  <!--! Font Awesome Pro 6.0.0 by @fontawesome - https://fontawesome.com License - https://fontawesome.com/license (Commercial License) Copyright 2022 Fonticons, Inc. -->
  <path
     d="M 14.285714,0 H 1.7142857 C 0.76785713,0 0,0.76785733 0,1.714286 V 14.285714 C 0,15.232143 0.76785713,16 1.7142857,16 H 14.285714 C 15.232143,16 16,15.232143 16,14.285714 V 1.714286 C 16,0.76785733 15.232143,0 14.285714,0 Z m -2.939285,13.007143 c -0.303572,0.325 -1.114286,0.707143 -2.1750003,0.707143 -2.6964287,0 -3.282143,-1.982143 -3.282143,-3.139286 V 7.360714 H 4.8285714 c -0.1214285,0 -0.2214285,-0.1 -0.2214285,-0.221428 V 5.6214287 c 0,-0.1607147 0.1,-0.3035714 0.2535714,-0.3571427 C 6.2464286,4.775 6.6785713,3.5678573 6.7428573,2.65 6.760714,2.4035713 6.889286,2.285714 7.1,2.285714 h 1.5821427 c 0.1214286,0 0.2214286,0.1 0.2214286,0.2214287 v 2.5714286 h 1.8535717 c 0.121428,0 0.221428,0.1 0.221428,0.2214287 v 1.825 c 0,0.1214287 -0.1,0.2214287 -0.221428,0.2214287 H 8.8964287 v 2.9750003 c 0,0.764285 0.5285713,1.196428 1.5178573,0.8 0.107143,-0.04286 0.2,-0.07143 0.285714,-0.05 0.07857,0.01786 0.128571,0.075 0.164286,0.175 l 0.492857,1.435714 c 0.03571,0.114286 0.07143,0.239286 -0.01071,0.325 z"
     id="path825"
     style="stroke-width:0.0357143" />
</svg>
