<?xml version="1.0" encoding="UTF-8" standalone="no"?>
<svg
   viewBox="0 0 16 16"
   version="1.1"
   id="svg20"
   width="16"
   height="16"
   xmlns="http://www.w3.org/2000/svg"
   xmlns:svg="http://www.w3.org/2000/svg">
  <defs
     id="defs24" />
  <!--! Font Awesome Pro 6.0.0 by @fontawesome - https://fontawesome.com License - https://fontawesome.com/license (Commercial License) Copyright 2022 Fonticons, Inc. -->
  <path
     d="M 1.1246679,1.124668 C 0,2.249332 0,4.059679 0,7.68 v 0.64 c 0,3.620321 0,5.430679 1.1246679,6.555321 C 2.2493321,16 4.0596786,16 7.68,16 h 0.64 c 3.620321,0 5.430679,0 6.555321,-1.124679 C 16,13.750679 16,11.940321 16,8.32 V 7.68 C 16,4.059679 16,2.249332 14.875321,1.124668 13.750679,0 11.940321,0 8.32,0 H 7.68 C 4.0596786,0 2.2493321,0 1.1246679,1.124668 Z M 2.7,4.866679 H 4.5266786 C 4.5866786,7.92 5.9333214,9.213321 7,9.48 V 4.866679 H 8.72 V 7.5 C 9.7733214,7.386679 10.88,6.186679 11.253321,4.866679 h 1.72 c -0.140714,0.684571 -0.421178,1.332714 -0.823821,1.904 -0.402607,0.57125 -0.91875,1.053285 -1.516179,1.416 0.667036,0.331142 1.256215,0.800107 1.728536,1.375857 0.472322,0.575785 0.817072,1.24525 1.011464,1.964143 H 11.48 C 11.305536,10.902214 10.9505,10.343214 10.459464,9.919786 9.9684643,9.496393 9.3633214,9.227429 8.72,9.146679 v 2.38 H 8.5133214 c -3.6466428,0 -5.7266535,-2.5 -5.8133214,-6.66 z"
     id="path18"
     style="stroke-width:0.0357142" />
</svg>
